lab_02/data/SDS00020.csv

Record Length,Analog:140
Sample Interval,CH:0.0000000020000
Vertical Units,CH1:V CH2:V CH3:V,,,
Vertical Scale,CH1:+2.000000E-01 CH2:+2.000000E-01 CH3:+2.000000E-01,,,
Vertical Offset,CH1:-6.440000E-01 CH2:-6.400000E-01 CH3:-6.400000E-01,,,
Horizontal Units,us,,,
Horizontal Scale,0.0200000000,,,
Model Number,SDS1104X-E,,,
Serial Number,SDSMMFCQ5R6893,,,
Software Version,8.1.6.1.35R2,,,
Source,CH1,CH2,CH3
Second,Volt,Volt,Volt
-3.920000E-08,-4.000008E-03,-8.000016E-03,-5.960464E-08
-3.720000E-08,-4.000008E-03,-8.000016E-03,+7.999957E-03
-3.520000E-08,-4.000008E-03,-8.000016E-03,-5.960464E-08
-3.320000E-08,-4.000008E-03,-5.960464E-08,-8.000016E-03
-3.120000E-08,-4.000008E-03,-5.960464E-08,-5.960464E-08
-2.920000E-08,-4.000008E-03,-5.960464E-08,+7.999957E-03
-2.720000E-08,-4.000008E-03,-8.000016E-03,+7.999957E-03
-2.520000E-08,-1.200002E-02,-5.960464E-08,-5.960464E-08
-2.320000E-08,-4.000008E-03,-8.000016E-03,-8.000016E-03
-2.120000E-08,-4.000008E-03,-8.000016E-03,-5.960464E-08
-1.920000E-08,-4.000008E-03,-5.960464E-08,-5.960464E-08
-1.720000E-08,-4.000008E-03,-5.960464E-08,-5.960464E-08
-1.520000E-08,-4.000008E-03,-8.000016E-03,-5.960464E-08
-1.320000E-08,-4.000008E-03,-8.000016E-03,+7.999957E-03
-1.120000E-08,-4.000008E-03,-8.000016E-03,+7.999957E-03
-9.200000E-09,-4.000008E-03,-8.000016E-03,-5.960464E-08
-7.200000E-09,-4.000008E-03,-8.000016E-03,-5.960464E-08
-5.200000E-09,+3.999949E-03,-8.000016E-03,+7.999957E-03
-3.200000E-09,-4.000008E-03,-5.960464E-08,+7.999957E-03
-1.200000E-09,+3.999949E-03,-5.960464E-08,+7.999957E-03
+8.000000E-10,+1.160000E-01,-8.000016E-03,-5.960464E-08
+2.800000E-09,+3.000000E-01,-8.000016E-03,-5.960464E-08
+4.800000E-09,+4.600000E-01,-8.000016E-03,-5.960464E-08
+6.800000E-09,+5.240000E-01,-8.000016E-03,-5.960464E-08
+8.800000E-09,+5.080000E-01,-8.000016E-03,+7.999957E-03
+1.080000E-08,+5.000000E-01,-8.000016E-03,+7.999957E-03
+1.280000E-08,+5.000000E-01,-8.000016E-03,-5.960464E-08
+1.480000E-08,+5.080000E-01,-5.960464E-08,-8.000016E-03
+1.680000E-08,+5.080000E-01,-5.960464E-08,-5.960464E-08
+1.880000E-08,+5.080000E-01,+3.999996E-02,-5.960464E-08
+2.080000E-08,+5.080000E-01,+1.360000E-01,-5.960464E-08
+2.280000E-08,+5.080000E-01,+2.640000E-01,-5.960464E-08
+2.480000E-08,+5.080000E-01,+3.360000E-01,-5.960464E-08
+2.680000E-08,+5.080000E-01,+3.440000E-01,-5.960464E-08
+2.880000E-08,+5.160000E-01,+3.360000E-01,-5.960464E-08
+3.080000E-08,+5.080000E-01,+3.360000E-01,-5.960464E-08
+3.280000E-08,+5.080000E-01,+3.440000E-01,-5.960464E-08
+3.480000E-08,+5.160000E-01,+3.440000E-01,-5.960464E-08
+3.680000E-08,+5.080000E-01,+3.360000E-01,-5.960464E-08
+3.880000E-08,+4.600000E-01,+3.360000E-01,-5.960464E-08
+4.080000E-08,+4.040000E-01,+3.440000E-01,-5.960464E-08
+4.280000E-08,+3.640000E-01,+3.440000E-01,-5.960464E-08
+4.480000E-08,+3.480000E-01,+3.440000E-01,-5.960464E-08
+4.680000E-08,+3.560000E-01,+3.360000E-01,-5.960464E-08
+4.880000E-08,+3.560000E-01,+3.360000E-01,+6.399995E-02
+5.080000E-08,+3.560000E-01,+3.440000E-01,+1.920000E-01
+5.280000E-08,+3.560000E-01,+3.440000E-01,+3.520000E-01
+5.480000E-08,+3.480000E-01,+3.360000E-01,+4.640000E-01
+5.680000E-08,+3.480000E-01,+3.360000E-01,+5.039999E-01
+5.880000E-08,+3.480000E-01,+3.360000E-01,+5.039999E-01
+6.080000E-08,+3.560000E-01,+3.440000E-01,+5.039999E-01
+6.280000E-08,+3.480000E-01,+3.440000E-01,+5.039999E-01
+6.480000E-08,+3.400000E-01,+3.440000E-01,+5.120000E-01
+6.680000E-08,+3.480000E-01,+3.440000E-01,+5.200000E-01
+6.880000E-08,+3.480000E-01,+3.360000E-01,+5.200000E-01
+7.080000E-08,+3.480000E-01,+3.360000E-01,+5.200000E-01
+7.280000E-08,+3.480000E-01,+3.360000E-01,+5.280000E-01
+7.480000E-08,+3.480000E-01,+3.360000E-01,+5.280000E-01
+7.680000E-08,+3.400000E-01,+3.360000E-01,+5.280000E-01
+7.880000E-08,+3.400000E-01,+3.440000E-01,+5.280000E-01
+8.080000E-08,+3.480000E-01,+3.760000E-01,+5.360000E-01
+8.280000E-08,+3.400000E-01,+4.080000E-01,+5.440000E-01
+8.480000E-08,+3.400000E-01,+4.400000E-01,+5.440000E-01
+8.680000E-08,+3.400000E-01,+4.560000E-01,+5.520000E-01
+8.880000E-08,+3.480000E-01,+4.560000E-01,+5.520000E-01
+9.080000E-08,+3.480000E-01,+4.560000E-01,+5.520000E-01
+9.280000E-08,+3.400000E-01,+4.640000E-01,+5.520000E-01
+9.480000E-08,+3.400000E-01,+4.640000E-01,+5.520000E-01
+9.680000E-08,+3.400000E-01,+4.640000E-01,+5.520000E-01
+9.880000E-08,+3.640000E-01,+4.720000E-01,+5.520000E-01
+1.008000E-07,+3.880000E-01,+4.720000E-01,+5.520000E-01
+1.028000E-07,+4.280000E-01,+4.720000E-01,+5.440000E-01
+1.048000E-07,+4.440000E-01,+4.720000E-01,+5.520000E-01
+1.068000E-07,+4.440000E-01,+4.720000E-01,+5.600000E-01
+1.088000E-07,+4.520000E-01,+4.720000E-01,+5.440000E-01
+1.108000E-07,+4.520000E-01,+4.720000E-01,+5.200000E-01
+1.128000E-07,+4.600000E-01,+4.800000E-01,+4.960000E-01
+1.148000E-07,+4.600000E-01,+4.800000E-01,+4.720000E-01
+1.168000E-07,+4.680000E-01,+4.800000E-01,+4.640000E-01
+1.188000E-07,+4.680000E-01,+4.720000E-01,+4.560000E-01
+1.208000E-07,+4.760000E-01,+4.720000E-01,+4.560000E-01
+1.228000E-07,+4.760000E-01,+4.800000E-01,+4.560000E-01
+1.248000E-07,+4.760000E-01,+4.800000E-01,+4.560000E-01
+1.268000E-07,+4.760000E-01,+4.720000E-01,+4.480000E-01
+1.288000E-07,+4.760000E-01,+4.720000E-01,+4.400000E-01
+1.308000E-07,+4.760000E-01,+4.800000E-01,+4.400000E-01
+1.328000E-07,+4.680000E-01,+4.880000E-01,+4.400000E-01
+1.348000E-07,+4.680000E-01,+4.800000E-01,+4.400000E-01
+1.368000E-07,+4.760000E-01,+4.800000E-01,+4.400000E-01
+1.388000E-07,+4.840000E-01,+4.720000E-01,+4.400000E-01
+1.408000E-07,+4.840000E-01,+4.720000E-01,+4.400000E-01
+1.428000E-07,+4.840000E-01,+4.720000E-01,+4.320000E-01
+1.448000E-07,+4.840000E-01,+4.640000E-01,+4.320000E-01
+1.468000E-07,+4.840000E-01,+4.560000E-01,+4.320000E-01
+1.488000E-07,+4.840000E-01,+4.560000E-01,+4.320000E-01
+1.508000E-07,+4.840000E-01,+4.560000E-01,+4.240000E-01
+1.528000E-07,+4.840000E-01,+4.640000E-01,+4.240000E-01
+1.548000E-07,+4.760000E-01,+4.640000E-01,+4.320000E-01
+1.568000E-07,+4.760000E-01,+4.560000E-01,+4.320000E-01
+1.588000E-07,+4.680000E-01,+4.480000E-01,+4.240000E-01
+1.608000E-07,+4.680000E-01,+4.560000E-01,+4.320000E-01
+1.628000E-07,+4.600000E-01,+4.560000E-01,+4.320000E-01
+1.648000E-07,+4.600000E-01,+4.480000E-01,+4.320000E-01
+1.668000E-07,+4.600000E-01,+4.560000E-01,+4.320000E-01
+1.688000E-07,+4.520000E-01,+4.560000E-01,+4.320000E-01
+1.708000E-07,+4.520000E-01,+4.480000E-01,+4.400000E-01
+1.728000E-07,+4.600000E-01,+4.480000E-01,+4.400000E-01
+1.748000E-07,+4.600000E-01,+4.480000E-01,+4.480000E-01
+1.768000E-07,+4.600000E-01,+4.560000E-01,+4.480000E-01
+1.788000E-07,+4.520000E-01,+4.560000E-01,+4.480000E-01
+1.808000E-07,+4.520000E-01,+4.480000E-01,+4.480000E-01
+1.828000E-07,+4.520000E-01,+4.480000E-01,+4.480000E-01
+1.848000E-07,+4.520000E-01,+4.480000E-01,+4.480000E-01
+1.868000E-07,+4.520000E-01,+4.560000E-01,+4.480000E-01
+1.888000E-07,+4.440000E-01,+4.560000E-01,+4.560000E-01
+1.908000E-07,+4.440000E-01,+4.560000E-01,+4.560000E-01
+1.928000E-07,+4.520000E-01,+4.560000E-01,+4.560000E-01
+1.948000E-07,+4.520000E-01,+4.560000E-01,+4.560000E-01
+1.968000E-07,+4.440000E-01,+4.560000E-01,+4.560000E-01
+1.988000E-07,+4.520000E-01,+4.560000E-01,+4.560000E-01
+2.008000E-07,+4.520000E-01,+4.560000E-01,+4.560000E-01
+2.028000E-07,+4.520000E-01,+4.560000E-01,+4.640000E-01
+2.048000E-07,+4.520000E-01,+4.480000E-01,+4.640000E-01
+2.068000E-07,+4.440000E-01,+4.560000E-01,+4.640000E-01
+2.088000E-07,+4.440000E-01,+4.560000E-01,+4.640000E-01
+2.108000E-07,+4.520000E-01,+4.560000E-01,+4.640000E-01
+2.128000E-07,+4.440000E-01,+4.560000E-01,+4.640000E-01
+2.148000E-07,+4.440000E-01,+4.560000E-01,+4.560000E-01
+2.168000E-07,+4.440000E-01,+4.640000E-01,+4.560000E-01
+2.188000E-07,+4.520000E-01,+4.560000E-01,+4.560000E-01
+2.208000E-07,+4.520000E-01,+4.560000E-01,+4.640000E-01
+2.228000E-07,+4.440000E-01,+4.560000E-01,+4.640000E-01
+2.248000E-07,+4.440000E-01,+4.560000E-01,+4.560000E-01
+2.268000E-07,+4.520000E-01,+4.560000E-01,+4.560000E-01
+2.288000E-07,+4.520000E-01,+4.560000E-01,+4.560000E-01
+2.308000E-07,+4.520000E-01,+4.560000E-01,+4.560000E-01
+2.328000E-07,+4.520000E-01,+4.560000E-01,+4.560000E-01
+2.348000E-07,+4.520000E-01,+4.560000E-01,+4.560000E-01
+2.368000E-07,+4.520000E-01,+4.560000E-01,+4.560000E-01
+2.388000E-07,+4.520000E-01,+4.560000E-01,+4.560000E-01
